{
  "version-11.7.3-docs": {
    "Getting Started": [
      "version-11.7.3-introduction",
      "version-11.7.3-installation",
      "version-11.7.3-troubleshoot",
      "version-11.7.3-quickstart"
    ],
    "Build": [
      "version-11.7.3-build/overview",
      "version-11.7.3-build/nlu",
      "version-11.7.3-build/dialogs",
      "version-11.7.3-build/code",
      "version-11.7.3-build/memory",
      "version-11.7.3-build/content",
      "version-11.7.3-build/channels",
      "version-11.7.3-build/emulator"
    ],
    "Deploy": [
      "version-11.7.3-deploy/architecture",
      "version-11.7.3-deploy/hosting"
    ],
    "Manage": [
      "version-11.7.3-manage/configuration",
      "version-11.7.3-manage/versions",
      "version-11.7.3-manage/monitoring",
      "version-11.7.3-manage/authentication"
    ],
    "Developers": [
      "version-11.7.3-developers/release-notes",
      "version-11.7.3-developers/migrate",
      "version-11.7.3-developers/debug",
      "version-11.7.3-developers/create-module",
      "version-11.7.3-developers/cluster",
      "version-11.7.3-developers/analytics"
    ],
    "Tutorials": [
      "version-11.7.3-tutorials/webchat-embedding",
      "version-11.7.3-tutorials/existing-backend",
      "version-11.7.3-tutorials/database",
      "version-11.7.3-tutorials/hitl",
      "version-11.7.3-tutorials/jump-to",
      "version-11.7.3-tutorials/proactive",
      "version-11.7.3-tutorials/interbot",
      "version-11.7.3-tutorials/shortlinks",
      "version-11.7.3-tutorials/timeouts",
      "version-11.7.3-tutorials/i18n",
      "version-11.7.3-tutorials/external-api",
      "version-11.7.3-tutorials/chat-3rd-party-OAuth",
      "version-11.7.3-tutorials/contextual-faq",
      "version-11.7.3-tutorials/listen-file-changes"
    ],
    "Cyborg Pro": [
      "version-11.7.3-pro/about-pro",
      "version-11.7.3-pro/licensing"
    ]
  }
}
